…
Create summary stats using filter, select, arrange, mutate with each stat using group_by and summarize

3.1) Which team/teams has the most wins?

boomfull%>%
  group_by(team)%>%
  summarize(totwins=sum(wins))%>%
  arrange(desc(totwins))

## # A tibble: 34 x 2
##    team                 totwins
##    <chr>                  <dbl>
##  1 New England Patriots     237
##  2 Pittsburgh Steelers      205
##  3 Green Bay Packers        197
##  4 Indianapolis Colts       197
##  5 Baltimore Ravens         190
##  6 Philadelphia Eagles      190
##  7 New Orleans Saints       183
##  8 Denver Broncos           182
##  9 Seattle Seahawks         182
## 10 Dallas Cowboys           168
## # … with 24 more rows
…
##                   points_for points_against offensive_ranking defensive_ranking
## points_for         1.0000000     -0.1852656         0.9517868         0.1974664
## points_against    -0.1852656      1.0000000        -0.2459601        -0.9286826
## offensive_ranking  0.9517868     -0.2459601         1.0000000         0.2245290
## defensive_ranking  0.1974664     -0.9286826         0.2245290         1.0000000

3.7) Which team has scored the most points from 2000-2019?

boomfull%>%
  group_by(team)%>%
  summarize(tot_points=sum(points_for))%>%
  arrange(desc(tot_points))

## # A tibble: 34 x 2
##    team                 tot_points
##    <chr>                     <dbl>
##  1 New England Patriots       8723
##  2 New Orleans Saints         8301
##  3 Green Bay Packers          8077
##  4 Indianapolis Colts         7954
##  5 Philadelphia Eagles        7742
##  6 Denver Broncos             7519
##  7 Kansas City Chiefs         7451
##  8 Pittsburgh Steelers        7381
##  9 Seattle Seahawks           7335
## 10 Minnesota Vikings          7257
## # … with 24 more rows
…
